single_cycle/result/single_cycle.vcd
$date
	Mon Feb 20 18:48:05 2023
$end
$version
	Icarus Verilog
$end
$timescale
	1ns
$end
$scope module tb_top $end
$var reg 1 ! clk $end
$var reg 1 " rst $end
$scope module top_inst $end
$var wire 1 # clk $end
$var wire 32 $ inst [31:0] $end
$var wire 32 % l_addr [31:0] $end
$var wire 32 & l_data [31:0] $end
$var wire 1 ' load_en $end
$var wire 1 ( mem_wb_clk $end
$var wire 32 ) pc [31:0] $end
$var wire 1 * rst $end
$var wire 32 + s_addr [31:0] $end
$var wire 32 , s_data [31:0] $end
$var wire 1 - store_en $end
$scope module cpu_inst $end
$var wire 5 . alu_op [4:0] $end
$var wire 4 / alu_op1_src [3:0] $end
$var wire 4 0 alu_op2_src [3:0] $end
$var wire 32 1 alu_result [31:0] $end
$var wire 1 2 can_branch $end
$var wire 6 3 funct [5:0] $end
$var wire 32 4 imm [31:0] $end
$var wire 32 5 inst [31:0] $end
$var wire 2 6 inst_type [1:0] $end
$var wire 1 7 jump $end
$var wire 32 8 l_addr [31:0] $end
$var wire 32 9 l_data [31:0] $end
$var wire 3 : l_s_mode [2:0] $end
$var wire 1 ' load_en $end
$var wire 1 # main_clk $end
$var wire 32 ; mem_read_data [31:0] $end
$var wire 1 < mem_read_en $end
$var wire 1 = mem_write_en $end
$var wire 6 > op_code [5:0] $end
$var wire 32 ? pc [31:0] $end
$var wire 1 @ pc_addr_src_reg $end
$var wire 5 A rd_addr [4:0] $end
$var wire 1 B reg_write $end
$var wire 5 C reg_write_addr [4:0] $end
$var wire 32 D reg_write_data [31:0] $end
$var wire 2 E reg_write_dst [1:0] $end
$var wire 2 F reg_write_src [1:0] $end
$var wire 5 G rs_addr [4:0] $end
$var wire 1 H rs_read_en $end
$var wire 32 I rs_val [31:0] $end
$var wire 1 * rst $end
$var wire 5 J rt_addr [4:0] $end
$var wire 1 K rt_read_en $end
$var wire 32 L rt_val [31:0] $end
$var wire 32 M s_addr [31:0] $end
$var wire 32 N s_data [31:0] $end
$var wire 5 O shamt [4:0] $end
$var wire 1 - store_en $end
$var wire 1 P targ_else_offset $end
$var wire 1 ( wb_clk $end
$var wire 1 Q write_en $end
$scope module pc_inst $end
$var wire 1 R branch_take $end
$var wire 1 2 can_branch $end
$var wire 1 # clk $end
$var wire 32 S imm [31:0] $end
$var wire 1 7 jump $end
$var wire 1 @ pc_addr_src_reg $end
$var wire 32 T pc_targ_addr [31:0] $end
$var wire 32 U rs_val [31:0] $end
$var wire 1 * rst $end
$var wire 1 V stall $end
$var wire 1 P targ_else_offset $end
$var reg 32 W pc [31:0] $end
$upscope $end
$scope module decoder_inst $end
$var wire 32 X inst [31:0] $end
$var reg 6 Y funct [5:0] $end
$var reg 32 Z imm [31:0] $end
$var reg 2 [ inst_type [1:0] $end
$var reg 6 \ op_code [5:0] $end
$var reg 5 ] rd [4:0] $end
$var reg 5 ^ rs [4:0] $end
$var reg 5 _ rt [4:0] $end
$var reg 5 ` shamt [4:0] $end
$upscope $end
$scope module control_inst $end
$var wire 6 a funct [5:0] $end
$var wire 2 b inst_type [1:0] $end
$var wire 6 c op_code [5:0] $end
$var wire 5 d rt [4:0] $end
$var reg 5 e alu_op [4:0] $end
$var reg 4 f alu_op1_src [3:0] $end
$var reg 4 g alu_op2_src [3:0] $end
$var reg 1 h can_branch $end
$var reg 1 i jump $end
$var reg 3 j l_s_mode [2:0] $end
$var reg 1 k mem_read_en $end
$var reg 1 l mem_write_en $end
$var reg 1 m pc_addr_src_reg $end
$var reg 1 n reg_write $end
$var reg 2 o reg_write_dst [1:0] $end
$var reg 2 p reg_write_src [1:0] $end
$var reg 1 q rs_read_en $end
$var reg 1 r rt_read_en $end
$var reg 1 s targ_else_offset $end
$upscope $end
$scope module regfile_inst $end
$var wire 1 ( clk $end
$var wire 32 t dbg21 [31:0] $end
$var wire 5 u rd_addr [4:0] $end
$var wire 32 v rd_data [31:0] $end
$var wire 5 w rs_addr [4:0] $end
$var wire 1 H rs_en $end
$var wire 1 * rst $end
$var wire 5 x rt_addr [4:0] $end
$var wire 1 K rt_en $end
$var wire 1 Q write_en $end
$var reg 32 y rs_data [31:0] $end
$var reg 32 z rt_data [31:0] $end
$upscope $end
$scope module alu_inst $end
$var wire 5 { alu_op [4:0] $end
$var wire 4 | alu_op1_src [3:0] $end
$var wire 4 } alu_op2_src [3:0] $end
$var wire 32 ~ imm [31:0] $end
$var wire 32 !" pc [31:0] $end
$var wire 32 "" result [31:0] $end
$var wire 32 #" rs_val [31:0] $end
$var wire 32 $" rt_val [31:0] $end
$var reg 32 %" op1 [31:0] $end
$var reg 32 &" op2 [31:0] $end
$scope module pure_alu_inst $end
$var wire 5 '" alu_op [4:0] $end
$var wire 32 (" op1 [31:0] $end
$var wire 32 )" op2 [31:0] $end
$var reg 1 *" integer_overflow $end
$var reg 33 +" overflow_temp [32:0] $end
$var reg 32 ," result [31:0] $end
$upscope $end
$upscope $end
$scope module mem_inst $end
$var wire 32 -" l_addr [31:0] $end
$var wire 32 ." l_data [31:0] $end
$var wire 3 /" l_s_mode [2:0] $end
$var wire 1 ' load_en $end
$var wire 32 0" mem_addr [31:0] $end
$var wire 1 < mem_read_en $end
$var wire 32 1" mem_write_data [31:0] $end
$var wire 1 = mem_write_en $end
$var wire 32 2" s_addr [31:0] $end
$var wire 1 - store_en $end
$var reg 32 3" mem_read_data [31:0] $end
$var reg 32 4" s_data [31:0] $end
$upscope $end
$scope module wb_inst $end
$var wire 32 5" alu_result [31:0] $end
$var wire 1 6" clk $end
$var wire 32 7" mem_data [31:0] $end
$var wire 32 8" pc [31:0] $end
$var wire 5 9" rd [4:0] $end
$var wire 1 B reg_write $end
$var wire 2 :" reg_write_dst [1:0] $end
$var wire 2 ;" reg_write_src [1:0] $end
$var wire 1 <" rst $end
$var wire 5 =" rt [4:0] $end
$var wire 1 Q write_en $end
$var reg 5 >" reg_write_addr [4:0] $end
$var reg 32 ?" reg_write_data [31:0] $end
$upscope $end
$upscope $end
$scope module imem $end
$var wire 32 @" addr [31:0] $end
$var wire 1 ( clk $end
$var wire 1 * rst $end
$var reg 32 A" data [31:0] $end
$upscope $end
$scope module dmem $end
$var wire 1 ( clk $end
$var wire 32 B" read_addr [31:0] $end
$var wire 32 C" read_addr_d [31:0] $end
$var wire 1 ' read_en $end
$var wire 1 * rst $end
$var wire 32 D" write_addr [31:0] $end
$var wire 32 E" write_addr_d [31:0] $end
$var wire 32 F" write_data [31:0] $end
$var wire 1 - write_en $end
$var reg 32 G" read_data [31:0] $end
$upscope $end
$upscope $end
$upscope $end
$enddefinitions $end
#0
$dumpvars
bx G"
b0 F"
b0 E"
b0 D"
b0 C"
b0 B"
bx A"
bx @"
bx ?"
bx >"
bx ="
z<"
bx ;"
bx :"
bx 9"
bx 8"
b0 7"
z6"
b0 5"
b0 4"
b0 3"
b0 2"
b0 1"
b0 0"
bx /"
bx ."
b0 -"
b0 ,"
bx +"
x*"
b0 )"
b0 ("
bx '"
b0 &"
b0 %"
b0 $"
b0 #"
b0 ""
bx !"
bx ~
bx }
bx |
bx {
b0 z
b0 y
bx x
bx w
bx v
bx u
bz t
xs
xr
xq
bx p
bx o
xn
xm
xl
xk
bx j
xi
xh
bx g
bx f
bx e
bx d
bx c
bx b
bx a
bx `
bx _
bx ^
bx ]
bx \
bx [
bx Z
bx Y
bx X
bx W
0V
b0 U
bx T
bx S
0R
xQ
xP
bx O
b0 N
b0 M
b0 L
xK
bx J
b0 I
xH
bx G
bx F
bx E
bx D
bx C
xB
bx A
x@
bx ?
bx >
x=
x<
b0 ;
bx :
bx 9
b0 8
x7
bx 6
bx 5
bx 4
bx 3
x2
b0 1
bx 0
bx /
bx .
x-
b0 ,
b0 +
1*
bx )
1(
x'
bx &
b0 %
bx $
0#
1"
0!
$end
#100
b1000 T
b1000 Z
b1000 4
b1000 S
b1000 ~
bx 3"
bx ;
bx 7"
b0 j
b0 :
b0 /"
0l
0-
0=
0k
0'
0<
1i
17
0m
0@
1s
1P
1h
12
b0 e
b0 .
b0 {
b0 '"
b11 [
b11 6
b11 b
b10 \
b10 >
b10 c
b1000000000000000000000000010 A"
b1000000000000000000000000010 $
b1000000000000000000000000010 5
b1000000000000000000000000010 X
b0 W
b0 )
b0 ?
b0 !"
b0 8"
b0 @"
0(
1!
1#
#200
1(
0!
0#
#250
0"
0*
#300
b10000 >"
b10000 C
b10000 u
b0 ?"
b0 D
b0 v
b0 y
b0 I
b0 U
b0 #"
b10000 _
b10000 J
b10000 d
b10000 x
b10000 ="
b0 ^
b0 G
b0 w
0*"
b0 +"
b0 T
b1 o
b1 E
b1 :"
b0 p
b0 F
b0 ;"
1n
1Q
1B
0r
0K
1q
1H
0h
02
0i
07
b1 g
b1 0
b1 }
b10 f
b10 /
b10 |
b1 e
b1 .
b1 {
b1 '"
b0 Z
b0 4
b0 S
b0 ~
b10 [
b10 6
b10 b
b1000 \
b1000 >
b1000 c
b100000000100000000000000000000 A"
b100000000100000000000000000000 $
b100000000100000000000000000000 5
b100000000100000000000000000000 X
b1000 W
b1000 )
b1000 ?
b1000 !"
b1000 8"
b1000 @"
0(
1!
1#
#400
1(
0!
0#
#500
bx 4"
bx ,
bx N
bx F"
b10001 >"
b10001 C
b10001 u
bx z
bx L
bx $"
bx 1"
b1 3"
b1 ;
b1 7"
b1 G"
b1 &
b1 9
b1 ."
b1 ?"
b1 D
b1 v
b10001 _
b10001 J
b10001 d
b10001 x
b10001 ="
b10000 ^
b10000 G
b10000 w
1k
1'
1<
b1 p
b1 F
b1 ;"
1r
1K
b100011 \
b100011 >
b100011 c
b10001110000100010000000000000000 A"
b10001110000100010000000000000000 $
b10001110000100010000000000000000 5
b10001110000100010000000000000000 X
b1100 W
b1100 )
b1100 ?
b1100 !"
b1100 8"
b1100 @"
0(
1!
1#
#600
1(
0!
0#
#700
b10 ?"
b10 D
b10 v
b10 3"
b10 ;
b10 7"
b10 G"
b10 &
b10 9
b10 ."
b10010 >"
b10010 C
b10010 u
b100 ,"
b100 C"
b100 %
b100 8
b100 -"
b100 B"
b100 E"
b100 +
b100 M
b100 2"
b100 D"
b100 1
b100 ""
b100 0"
b100 5"
b100 +"
b100 &"
b100 )"
b10010 _
b10010 J
b10010 d
b10010 x
b10010 ="
b100 T
bx 4"
bx ,
bx N
bx F"
b100 Z
b100 4
b100 S
b100 ~
bx z
bx L
bx $"
bx 1"
b10001110000100100000000000000100 A"
b10001110000100100000000000000100 $
b10001110000100100000000000000100 5
b10001110000100100000000000000100 X
b10000 W
b10000 )
b10000 ?
b10000 !"
b10000 8"
b10000 @"
0(
1!
1#
#800
1(
0!
0#
#900
1R
b1 %"
b1 ("
b10011 >"
b10011 C
b10011 u
b11 ?"
b11 D
b11 v
b1 y
b1 I
b1 U
b1 #"
b11 +"
b0 o
b0 E
b0 :"
b0 p
b0 F
b0 ;"
b11 ,"
b11 C"
b11 %
b11 8
b11 -"
b11 B"
b11 E"
b11 +
b11 M
b11 2"
b11 D"
b11 1
b11 ""
b11 0"
b11 5"
b10 &"
b10 )"
b100000 Y
b100000 3
b100000 a
b0 `
b0 O
b10011 ]
b10011 A
b10011 9"
b10001 ^
b10001 G
b10001 w
b0 T
0k
0'
0<
1n
1Q
1B
1r
1K
1q
1H
b11 g
b11 0
b11 }
b10 f
b10 /
b10 |
b1 e
b1 .
b1 {
b1 '"
b10 4"
b10 ,
b10 N
b10 F"
b0 Z
b0 4
b0 S
b0 ~
b1 [
b1 6
b1 b
b0 \
b0 >
b0 c
b10 z
b10 L
b10 $"
b10 1"
b10001100101001100000100000 A"
b10001100101001100000100000 $
b10001100101001100000100000 5
b10001100101001100000100000 X
b10100 W
b10100 )
b10100 ?
b10100 !"
b10100 8"
b10100 @"
0(
1!
1#
#1000
1(
0!
0#
#1100
0R
b0 &"
b0 )"
b0 %"
b0 ("
b0 ,"
b0 C"
b0 %
b0 8
b0 -"
b0 B"
b0 E"
b0 +
b0 M
b0 2"
b0 D"
b0 1
b0 ""
b0 0"
b0 5"
bx _
bx J
bx d
bx x
bx ="
bx ^
bx G
bx w
b0 4"
b0 ,
b0 N
b0 F"
b0 z
b0 L
b0 $"
b0 1"
b0 y
b0 I
b0 U
b0 #"
0n
0Q
0B
0r
0K
0q
0H
b0 g
b0 0
b0 }
b0 f
b0 /
b0 |
b0 e
b0 .
b0 {
b0 '"
b10 [
b10 6
b10 b
bx \
bx >
bx c
bx A"
bx $
bx 5
bx X
b11000 W
b11000 )
b11000 ?
b11000 !"
b11000 8"
b11000 @"
0(
1!
1#
#1200
1(
0!
0#
#1300
b11100 W
b11100 )
b11100 ?
b11100 !"
b11100 8"
b11100 @"
0(
1!
1#
#1400
1(
0!
0#
#1500
b100000 W
b100000 )
b100000 ?
b100000 !"
b100000 8"
b100000 @"
0(
1!
1#
#1600
1(
0!
0#
#1700
b100100 W
b100100 )
b100100 ?
b100100 !"
b100100 8"
b100100 @"
0(
1!
1#
#1800
1(
0!
0#
#1900
b101000 W
b101000 )
b101000 ?
b101000 !"
b101000 8"
b101000 @"
0(
1!
1#
#2000
1(
0!
0#
#2100
b101100 W
b101100 )
b101100 ?
b101100 !"
b101100 8"
b101100 @"
0(
1!
1#
#2200
1(
0!
0#
#2300
b110000 W
b110000 )
b110000 ?
b110000 !"
b110000 8"
b110000 @"
0(
1!
1#
#2400
1(
0!
0#
#2500
b110100 W
b110100 )
b110100 ?
b110100 !"
b110100 8"
b110100 @"
0(
1!
1#
#2600
1(
0!
0#
#2700
b111000 W
b111000 )
b111000 ?
b111000 !"
b111000 8"
b111000 @"
0(
1!
1#
#2800
1(
0!
0#
#2900
b111100 W
b111100 )
b111100 ?
b111100 !"
b111100 8"
b111100 @"
0(
1!
1#
#3000
1(
0!
0#
#3100
b1000000 W
b1000000 )
b1000000 ?
b1000000 !"
b1000000 8"
b1000000 @"
0(
1!
1#
#3200
1(
0!
0#
#3300
b1000100 W
b1000100 )
b1000100 ?
b1000100 !"
b1000100 8"
b1000100 @"
0(
1!
1#
#3400
1(
0!
0#
#3500
b1001000 W
b1001000 )
b1001000 ?
b1001000 !"
b1001000 8"
b1001000 @"
0(
1!
1#
#3600
1(
0!
0#
#3700
b1001100 W
b1001100 )
b1001100 ?
b1001100 !"
b1001100 8"
b1001100 @"
0(
1!
1#
#3800
1(
0!
0#
#3900
b1010000 W
b1010000 )
b1010000 ?
b1010000 !"
b1010000 8"
b1010000 @"
0(
1!
1#
#4000
1(
0!
0#
#4100
b1010100 W
b1010100 )
b1010100 ?
b1010100 !"
b1010100 8"
b1010100 @"
0(
1!
1#
#4200
1(
0!
0#
#4300
b1011000 W
b1011000 )
b1011000 ?
b1011000 !"
b1011000 8"
b1011000 @"
0(
1!
1#
#4400
1(
0!
0#
#4500
b1011100 W
b1011100 )
b1011100 ?
b1011100 !"
b1011100 8"
b1011100 @"
0(
1!
1#
#4600
1(
0!
0#
#4700
b1100000 W
b1100000 )
b1100000 ?
b1100000 !"
b1100000 8"
b1100000 @"
0(
1!
1#
#4800
1(
0!
0#
#4900
b1100100 W
b1100100 )
b1100100 ?
b1100100 !"
b1100100 8"
b1100100 @"
0(
1!
1#
#5000
1(
0!
0#
#5100
b1101000 W
b1101000 )
b1101000 ?
b1101000 !"
b1101000 8"
b1101000 @"
0(
1!
1#
#5200
1(
0!
0#
#5300
b1101100 W
b1101100 )
b1101100 ?
b1101100 !"
b1101100 8"
b1101100 @"
0(
1!
1#
#5400
1(
0!
0#
#5500
b1110000 W
b1110000 )
b1110000 ?
b1110000 !"
b1110000 8"
b1110000 @"
0(
1!
1#
#5600
1(
0!
0#
#5700
b1110100 W
b1110100 )
b1110100 ?
b1110100 !"
b1110100 8"
b1110100 @"
0(
1!
1#
#5800
1(
0!
0#
#5900
b1111000 W
b1111000 )
b1111000 ?
b1111000 !"
b1111000 8"
b1111000 @"
0(
1!
1#
#6000
1(
0!
0#
#6100
b1111100 W
b1111100 )
b1111100 ?
b1111100 !"
b1111100 8"
b1111100 @"
0(
1!
1#
#6200
1(
0!
0#
#6300
b10000000 W
b10000000 )
b10000000 ?
b10000000 !"
b10000000 8"
b10000000 @"
0(
1!
1#
#6400
1(
0!
0#
#6500
b10000100 W
b10000100 )
b10000100 ?
b10000100 !"
b10000100 8"
b10000100 @"
0(
1!
1#
#6600
1(
0!
0#
#6700
b10001000 W
b10001000 )
b10001000 ?
b10001000 !"
b10001000 8"
b10001000 @"
0(
1!
1#
#6800
1(
0!
0#
#6900
b10001100 W
b10001100 )
b10001100 ?
b10001100 !"
b10001100 8"
b10001100 @"
0(
1!
1#
#7000
1(
0!
0#
#7100
b10010000 W
b10010000 )
b10010000 ?
b10010000 !"
b10010000 8"
b10010000 @"
0(
1!
1#
#7200
1(
0!
0#
#7300
b10010100 W
b10010100 )
b10010100 ?
b10010100 !"
b10010100 8"
b10010100 @"
0(
1!
1#
#7400
1(
0!
0#
#7500
b10011000 W
b10011000 )
b10011000 ?
b10011000 !"
b10011000 8"
b10011000 @"
0(
1!
1#
#7600
1(
0!
0#
#7700
b10011100 W
b10011100 )
b10011100 ?
b10011100 !"
b10011100 8"
b10011100 @"
0(
1!
1#
#7800
1(
0!
0#
#7900
b10100000 W
b10100000 )
b10100000 ?
b10100000 !"
b10100000 8"
b10100000 @"
0(
1!
1#
#8000
1(
0!
0#
#8100
b10100100 W
b10100100 )
b10100100 ?
b10100100 !"
b10100100 8"
b10100100 @"
0(
1!
1#
#8200
1(
0!
0#
#8300
b10101000 W
b10101000 )
b10101000 ?
b10101000 !"
b10101000 8"
b10101000 @"
0(
1!
1#
#8400
1(
0!
0#
#8500
b10101100 W
b10101100 )
b10101100 ?
b10101100 !"
b10101100 8"
b10101100 @"
0(
1!
1#
#8600
1(
0!
0#
#8700
b10110000 W
b10110000 )
b10110000 ?
b10110000 !"
b10110000 8"
b10110000 @"
0(
1!
1#
#8800
1(
0!
0#
#8900
b10110100 W
b10110100 )
b10110100 ?
b10110100 !"
b10110100 8"
b10110100 @"
0(
1!
1#
#9000
1(
0!
0#
#9100
b10111000 W
b10111000 )
b10111000 ?
b10111000 !"
b10111000 8"
b10111000 @"
0(
1!
1#
#9200
1(
0!
0#
#9300
b10111100 W
b10111100 )
b10111100 ?
b10111100 !"
b10111100 8"
b10111100 @"
0(
1!
1#
#9400
1(
0!
0#
#9500
b11000000 W
b11000000 )
b11000000 ?
b11000000 !"
b11000000 8"
b11000000 @"
0(
1!
1#
#9600
1(
0!
0#
#9700
b11000100 W
b11000100 )
b11000100 ?
b11000100 !"
b11000100 8"
b11000100 @"
0(
1!
1#
#9800
1(
0!
0#
#9900
b11001000 W
b11001000 )
b11001000 ?
b11001000 !"
b11001000 8"
b11001000 @"
0(
1!
1#
#10000
1(
0!
0#
#10100
b11001100 W
b11001100 )
b11001100 ?
b11001100 !"
b11001100 8"
b11001100 @"
0(
1!
1#
#10200
1(
0!
0#
#10300
b11010000 W
b11010000 )
b11010000 ?
b11010000 !"
b11010000 8"
b11010000 @"
0(
1!
1#
#10400
1(
0!
0#
#10500
b11010100 W
b11010100 )
b11010100 ?
b11010100 !"
b11010100 8"
b11010100 @"
0(
1!
1#
#10600
1(
0!
0#
#10700
b11011000 W
b11011000 )
b11011000 ?
b11011000 !"
b11011000 8"
b11011000 @"
0(
1!
1#
#10800
1(
0!
0#
#10900
b11011100 W
b11011100 )
b11011100 ?
b11011100 !"
b11011100 8"
b11011100 @"
0(
1!
1#
#11000
1(
0!
0#
#11100
b11100000 W
b11100000 )
b11100000 ?
b11100000 !"
b11100000 8"
b11100000 @"
0(
1!
1#
#11200
1(
0!
0#
#11300
b11100100 W
b11100100 )
b11100100 ?
b11100100 !"
b11100100 8"
b11100100 @"
0(
1!
1#
#11400
1(
0!
0#
#11500
b11101000 W
b11101000 )
b11101000 ?
b11101000 !"
b11101000 8"
b11101000 @"
0(
1!
1#
#11600
1(
0!
0#
#11700
b11101100 W
b11101100 )
b11101100 ?
b11101100 !"
b11101100 8"
b11101100 @"
0(
1!
1#
#11800
1(
0!
0#
#11900
b11110000 W
b11110000 )
b11110000 ?
b11110000 !"
b11110000 8"
b11110000 @"
0(
1!
1#
#12000
1(
0!
0#
#12100
b11110100 W
b11110100 )
b11110100 ?
b11110100 !"
b11110100 8"
b11110100 @"
0(
1!
1#
#12200
1(
0!
0#
#12300
b11111000 W
b11111000 )
b11111000 ?
b11111000 !"
b11111000 8"
b11111000 @"
0(
1!
1#
#12400
1(
0!
0#
#12500
b11111100 W
b11111100 )
b11111100 ?
b11111100 !"
b11111100 8"
b11111100 @"
0(
1!
1#
#12600
1(
0!
0#
#12700
b100000000 W
b100000000 )
b100000000 ?
b100000000 !"
b100000000 8"
b100000000 @"
0(
1!
1#
#12800
1(
0!
0#
#12900
b100000100 W
b100000100 )
b100000100 ?
b100000100 !"
b100000100 8"
b100000100 @"
0(
1!
1#
#13000
1(
0!
0#
#13100
b100001000 W
b100001000 )
b100001000 ?
b100001000 !"
b100001000 8"
b100001000 @"
0(
1!
1#
#13200
1(
0!
0#
#13300
b100001100 W
b100001100 )
b100001100 ?
b100001100 !"
b100001100 8"
b100001100 @"
0(
1!
1#
#13400
1(
0!
0#
#13500
b100010000 W
b100010000 )
b100010000 ?
b100010000 !"
b100010000 8"
b100010000 @"
0(
1!
1#
#13600
1(
0!
0#
#13700
b100010100 W
b100010100 )
b100010100 ?
b100010100 !"
b100010100 8"
b100010100 @"
0(
1!
1#
#13800
1(
0!
0#
#13900
b100011000 W
b100011000 )
b100011000 ?
b100011000 !"
b100011000 8"
b100011000 @"
0(
1!
1#
#14000
1(
0!
0#
#14100
b100011100 W
b100011100 )
b100011100 ?
b100011100 !"
b100011100 8"
b100011100 @"
0(
1!
1#
#14200
1(
0!
0#
#14300
b100100000 W
b100100000 )
b100100000 ?
b100100000 !"
b100100000 8"
b100100000 @"
0(
1!
1#
#14400
1(
0!
0#
#14500
b100100100 W
b100100100 )
b100100100 ?
b100100100 !"
b100100100 8"
b100100100 @"
0(
1!
1#
#14600
1(
0!
0#
#14700
b100101000 W
b100101000 )
b100101000 ?
b100101000 !"
b100101000 8"
b100101000 @"
0(
1!
1#
#14800
1(
0!
0#
#14900
b100101100 W
b100101100 )
b100101100 ?
b100101100 !"
b100101100 8"
b100101100 @"
0(
1!
1#
#15000
1(
0!
0#
#15100
b100110000 W
b100110000 )
b100110000 ?
b100110000 !"
b100110000 8"
b100110000 @"
0(
1!
1#
#15200
1(
0!
0#
#15300
b100110100 W
b100110100 )
b100110100 ?
b100110100 !"
b100110100 8"
b100110100 @"
0(
1!
1#
#15400
1(
0!
0#
#15500
b100111000 W
b100111000 )
b100111000 ?
b100111000 !"
b100111000 8"
b100111000 @"
0(
1!
1#
#15600
1(
0!
0#
#15700
b100111100 W
b100111100 )
b100111100 ?
b100111100 !"
b100111100 8"
b100111100 @"
0(
1!
1#
#15800
1(
0!
0#
#15900
b101000000 W
b101000000 )
b101000000 ?
b101000000 !"
b101000000 8"
b101000000 @"
0(
1!
1#
#16000
1(
0!
0#
#16100
b101000100 W
b101000100 )
b101000100 ?
b101000100 !"
b101000100 8"
b101000100 @"
0(
1!
1#
#16200
1(
0!
0#
#16300
b101001000 W
b101001000 )
b101001000 ?
b101001000 !"
b101001000 8"
b101001000 @"
0(
1!
1#
#16400
1(
0!
0#
#16500
b101001100 W
b101001100 )
b101001100 ?
b101001100 !"
b101001100 8"
b101001100 @"
0(
1!
1#
#16600
1(
0!
0#
#16700
b101010000 W
b101010000 )
b101010000 ?
b101010000 !"
b101010000 8"
b101010000 @"
0(
1!
1#
#16800
1(
0!
0#
#16900
b101010100 W
b101010100 )
b101010100 ?
b101010100 !"
b101010100 8"
b101010100 @"
0(
1!
1#
#17000
1(
0!
0#
#17100
b101011000 W
b101011000 )
b101011000 ?
b101011000 !"
b101011000 8"
b101011000 @"
0(
1!
1#
#17200
1(
0!
0#
#17300
b101011100 W
b101011100 )
b101011100 ?
b101011100 !"
b101011100 8"
b101011100 @"
0(
1!
1#
#17400
1(
0!
0#
#17500
b101100000 W
b101100000 )
b101100000 ?
b101100000 !"
b101100000 8"
b101100000 @"
0(
1!
1#
#17600
1(
0!
0#
#17700
b101100100 W
b101100100 )
b101100100 ?
b101100100 !"
b101100100 8"
b101100100 @"
0(
1!
1#
#17800
1(
0!
0#
#17900
b101101000 W
b101101000 )
b101101000 ?
b101101000 !"
b101101000 8"
b101101000 @"
0(
1!
1#
#18000
1(
0!
0#
#18100
b101101100 W
b101101100 )
b101101100 ?
b101101100 !"
b101101100 8"
b101101100 @"
0(
1!
1#
#18200
1(
0!
0#
#18300
b101110000 W
b101110000 )
b101110000 ?
b101110000 !"
b101110000 8"
b101110000 @"
0(
1!
1#
#18400
1(
0!
0#
#18500
b101110100 W
b101110100 )
b101110100 ?
b101110100 !"
b101110100 8"
b101110100 @"
0(
1!
1#
#18600
1(
0!
0#
#18700
b101111000 W
b101111000 )
b101111000 ?
b101111000 !"
b101111000 8"
b101111000 @"
0(
1!
1#
#18800
1(
0!
0#
#18900
b101111100 W
b101111100 )
b101111100 ?
b101111100 !"
b101111100 8"
b101111100 @"
0(
1!
1#
#19000
1(
0!
0#
#19100
b110000000 W
b110000000 )
b110000000 ?
b110000000 !"
b110000000 8"
b110000000 @"
0(
1!
1#
#19200
1(
0!
0#
#19300
b110000100 W
b110000100 )
b110000100 ?
b110000100 !"
b110000100 8"
b110000100 @"
0(
1!
1#
#19400
1(
0!
0#
#19500
b110001000 W
b110001000 )
b110001000 ?
b110001000 !"
b110001000 8"
b110001000 @"
0(
1!
1#
#19600
1(
0!
0#
#19700
b110001100 W
b110001100 )
b110001100 ?
b110001100 !"
b110001100 8"
b110001100 @"
0(
1!
1#
#19800
1(
0!
0#
#19900
b110010000 W
b110010000 )
b110010000 ?
b110010000 !"
b110010000 8"
b110010000 @"
0(
1!
1#
#20000
1(
0!
0#
#20100
b110010100 W
b110010100 )
b110010100 ?
b110010100 !"
b110010100 8"
b110010100 @"
0(
1!
1#
#20200
1(
0!
0#
#20300
b110011000 W
b110011000 )
b110011000 ?
b110011000 !"
b110011000 8"
b110011000 @"
0(
1!
1#
#20400
1(
0!
0#
#20500
b110011100 W
b110011100 )
b110011100 ?
b110011100 !"
b110011100 8"
b110011100 @"
0(
1!
1#
#20600
1(
0!
0#
#20700
b110100000 W
b110100000 )
b110100000 ?
b110100000 !"
b110100000 8"
b110100000 @"
0(
1!
1#
#20800
1(
0!
0#
#20900
b110100100 W
b110100100 )
b110100100 ?
b110100100 !"
b110100100 8"
b110100100 @"
0(
1!
1#
#21000
1(
0!
0#
#21100
b110101000 W
b110101000 )
b110101000 ?
b110101000 !"
b110101000 8"
b110101000 @"
0(
1!
1#
#21200
1(
0!
0#
#21300
b110101100 W
b110101100 )
b110101100 ?
b110101100 !"
b110101100 8"
b110101100 @"
0(
1!
1#
#21400
1(
0!
0#
#21500
b110110000 W
b110110000 )
b110110000 ?
b110110000 !"
b110110000 8"
b110110000 @"
0(
1!
1#
#21600
1(
0!
0#
#21700
b110110100 W
b110110100 )
b110110100 ?
b110110100 !"
b110110100 8"
b110110100 @"
0(
1!
1#
#21800
1(
0!
0#
#21900
b110111000 W
b110111000 )
b110111000 ?
b110111000 !"
b110111000 8"
b110111000 @"
0(
1!
1#
#22000
1(
0!
0#
#22100
b110111100 W
b110111100 )
b110111100 ?
b110111100 !"
b110111100 8"
b110111100 @"
0(
1!
1#
#22200
1(
0!
0#
#22300
b111000000 W
b111000000 )
b111000000 ?
b111000000 !"
b111000000 8"
b111000000 @"
0(
1!
1#
#22400
1(
0!
0#
#22500
b111000100 W
b111000100 )
b111000100 ?
b111000100 !"
b111000100 8"
b111000100 @"
0(
1!
1#
#22600
1(
0!
0#
#22700
b111001000 W
b111001000 )
b111001000 ?
b111001000 !"
b111001000 8"
b111001000 @"
0(
1!
1#
#22800
1(
0!
0#
#22900
b111001100 W
b111001100 )
b111001100 ?
b111001100 !"
b111001100 8"
b111001100 @"
0(
1!
1#
#23000
1(
0!
0#
#23100
b111010000 W
b111010000 )
b111010000 ?
b111010000 !"
b111010000 8"
b111010000 @"
0(
1!
1#
#23200
1(
0!
0#
#23300
b111010100 W
b111010100 )
b111010100 ?
b111010100 !"
b111010100 8"
b111010100 @"
0(
1!
1#
#23400
1(
0!
0#
#23500
b111011000 W
b111011000 )
b111011000 ?
b111011000 !"
b111011000 8"
b111011000 @"
0(
1!
1#
#23600
1(
0!
0#
#23700
b111011100 W
b111011100 )
b111011100 ?
b111011100 !"
b111011100 8"
b111011100 @"
0(
1!
1#
#23800
1(
0!
0#
#23900
b111100000 W
b111100000 )
b111100000 ?
b111100000 !"
b111100000 8"
b111100000 @"
0(
1!
1#
#24000
1(
0!
0#
#24100
b111100100 W
b111100100 )
b111100100 ?
b111100100 !"
b111100100 8"
b111100100 @"
0(
1!
1#
#24200
1(
0!
0#
#24300
b111101000 W
b111101000 )
b111101000 ?
b111101000 !"
b111101000 8"
b111101000 @"
0(
1!
1#
#24400
1(
0!
0#
#24500
b111101100 W
b111101100 )
b111101100 ?
b111101100 !"
b111101100 8"
b111101100 @"
0(
1!
1#
#24600
1(
0!
0#
#24700
b111110000 W
b111110000 )
b111110000 ?
b111110000 !"
b111110000 8"
b111110000 @"
0(
1!
1#
#24800
1(
0!
0#
#24900
b111110100 W
b111110100 )
b111110100 ?
b111110100 !"
b111110100 8"
b111110100 @"
0(
1!
1#
#25000
1(
0!
0#
#25100
b111111000 W
b111111000 )
b111111000 ?
b111111000 !"
b111111000 8"
b111111000 @"
0(
1!
1#
#25200
1(
0!
0#
