multicycle/result/multicycle.vcd
$date
	Mon Feb 20 14:12:19 2023
$end
$version
	Icarus Verilog
$end
$timescale
	1ns
$end
$scope module tb_top $end
$var reg 1 ! clk $end
$var reg 1 " rst $end
$scope module top_inst $end
$var wire 1 # clk $end
$var wire 32 $ inst [31:0] $end
$var wire 32 % l_addr [31:0] $end
$var wire 32 & l_data [31:0] $end
$var wire 1 ' load_clk $end
$var wire 1 ( load_en $end
$var wire 1 ) mem_clk $end
$var wire 32 * mem_read_addr [31:0] $end
$var wire 32 + mem_read_data [31:0] $end
$var wire 32 , pc [31:0] $end
$var wire 1 - pc_clk $end
$var wire 1 . pc_en $end
$var wire 1 / rst $end
$var wire 32 0 s_addr [31:0] $end
$var wire 32 1 s_data [31:0] $end
$var wire 1 2 store_clk $end
$var wire 1 3 store_en $end
$scope module cpu_inst $end
$var wire 5 4 alu_op [4:0] $end
$var wire 4 5 alu_op1_src [3:0] $end
$var wire 4 6 alu_op2_src [3:0] $end
$var wire 32 7 alu_result [31:0] $end
$var wire 1 8 can_branch $end
$var wire 1 # clk $end
$var wire 1 9 ex_clk $end
$var wire 6 : funct [5:0] $end
$var wire 1 ; id_clk $end
$var wire 1 < if_clk $end
$var wire 32 = imm [31:0] $end
$var wire 32 > inst [31:0] $end
$var wire 1 ? jump $end
$var wire 32 @ l_addr [31:0] $end
$var wire 32 A l_data [31:0] $end
$var wire 3 B l_s_mode [2:0] $end
$var wire 1 ' load_clk $end
$var wire 1 ( load_en $end
$var wire 1 C mem_clk $end
$var wire 32 D mem_read_data [31:0] $end
$var wire 1 E mem_read_en $end
$var wire 1 F mem_write_en $end
$var wire 6 G op_code [5:0] $end
$var wire 32 H pc [31:0] $end
$var wire 1 I pc_addr_src_reg $end
$var wire 1 - pc_clk $end
$var wire 1 . pc_en $end
$var wire 5 J rd_addr [4:0] $end
$var wire 32 K read_inst [31:0] $end
$var wire 1 L reg_write $end
$var wire 5 M reg_write_addr [4:0] $end
$var wire 32 N reg_write_data [31:0] $end
$var wire 2 O reg_write_src [1:0] $end
$var wire 5 P rs_addr [4:0] $end
$var wire 1 Q rs_read_en $end
$var wire 32 R rs_val [31:0] $end
$var wire 1 / rst $end
$var wire 5 S rt_addr [4:0] $end
$var wire 1 T rt_read_en $end
$var wire 32 U rt_val [31:0] $end
$var wire 32 V s_addr [31:0] $end
$var wire 32 W s_data [31:0] $end
$var wire 5 X shamt [4:0] $end
$var wire 1 2 store_clk $end
$var wire 1 3 store_en $end
$var wire 1 Y targ_else_offset $end
$var wire 1 Z wb_clk $end
$var wire 1 [ write_en $end
$scope module counter_inst $end
$var wire 1 # clk $end
$var wire 1 9 ex_clk $end
$var wire 6 \ funct [5:0] $end
$var wire 1 ; id_clk $end
$var wire 1 < if_clk $end
$var wire 1 . inst_read_en $end
$var wire 1 C mem_clk $end
$var wire 6 ] op_code [5:0] $end
$var wire 1 / rst $end
$var wire 1 Z wb_clk $end
$var reg 5 ^ clks [4:0] $end
$var reg 3 _ count [2:0] $end
$var reg 3 ` cur_cnt [2:0] $end
$var reg 1 a invalid $end
$var reg 4 b suffix_type [3:0] $end
$scope function seq_lookup_table $end
$var reg 4 c exe_type [3:0] $end
$var reg 4 d seq_lookup_table [3:0] $end
$var reg 3 e stage_count [2:0] $end
$upscope $end
$upscope $end
$scope module pc_inst $end
$var wire 1 f branch_take $end
$var wire 1 8 can_branch $end
$var wire 1 < clk $end
$var wire 32 g imm [31:0] $end
$var wire 1 ? jump $end
$var wire 1 I pc_addr_src_reg $end
$var wire 32 h pc_targ_addr [31:0] $end
$var wire 32 i read_inst [31:0] $end
$var wire 32 j rs_val [31:0] $end
$var wire 1 / rst $end
$var wire 1 Y targ_else_offset $end
$var reg 32 k inst [31:0] $end
$var reg 32 l pc [31:0] $end
$upscope $end
$scope module decoder_inst $end
$var wire 5 m alu_op [4:0] $end
$var wire 4 n alu_op1_src [3:0] $end
$var wire 4 o alu_op2_src [3:0] $end
$var wire 1 p bubble $end
$var wire 1 8 can_branch $end
$var wire 1 ; clk $end
$var wire 32 q inst [31:0] $end
$var wire 1 ? jump $end
$var wire 3 r l_s_mode [2:0] $end
$var wire 1 E mem_read_en $end
$var wire 1 F mem_write_en $end
$var wire 1 I pc_addr_src_reg $end
$var wire 1 L reg_write $end
$var wire 2 s reg_write_dst [1:0] $end
$var wire 2 t reg_write_src [1:0] $end
$var wire 1 Q rs_read_en $end
$var wire 1 / rst $end
$var wire 1 T rt_read_en $end
$var wire 1 u stall $end
$var wire 1 Y targ_else_offset $end
$var reg 6 v funct [5:0] $end
$var reg 32 w imm [31:0] $end
$var reg 2 x inst_type [1:0] $end
$var reg 6 y op_code [5:0] $end
$var reg 5 z rd [4:0] $end
$var reg 5 { reg_write_addr [4:0] $end
$var reg 5 | rs [4:0] $end
$var reg 5 } rt [4:0] $end
$var reg 5 ~ shamt [4:0] $end
$scope module control_inst $end
$var wire 1 p bubble $end
$var wire 6 !" funct [5:0] $end
$var wire 2 "" inst_type [1:0] $end
$var wire 6 #" op_code [5:0] $end
$var wire 1 / rst $end
$var wire 5 $" rt [4:0] $end
$var reg 5 %" alu_op [4:0] $end
$var reg 4 &" alu_op1_src [3:0] $end
$var reg 4 '" alu_op2_src [3:0] $end
$var reg 1 (" can_branch $end
$var reg 1 )" jump $end
$var reg 3 *" l_s_mode [2:0] $end
$var reg 1 +" mem_read_en $end
$var reg 1 ," mem_write_en $end
$var reg 1 -" pc_addr_src_reg $end
$var reg 1 ." reg_write $end
$var reg 2 /" reg_write_dst [1:0] $end
$var reg 2 0" reg_write_src [1:0] $end
$var reg 1 1" rs_read_en $end
$var reg 1 2" rt_read_en $end
$var reg 1 3" targ_else_offset $end
$upscope $end
$upscope $end
$scope module regfile_inst $end
$var wire 1 Z clk $end
$var wire 5 4" rs_addr [4:0] $end
$var wire 1 Q rs_en $end
$var wire 1 / rst $end
$var wire 5 5" rt_addr [4:0] $end
$var wire 1 T rt_en $end
$var wire 5 6" write_addr [4:0] $end
$var wire 32 7" write_data [31:0] $end
$var wire 1 [ write_en $end
$var reg 32 8" rs_data [31:0] $end
$var reg 32 9" rt_data [31:0] $end
$upscope $end
$scope module alu_inst $end
$var wire 5 :" alu_op [4:0] $end
$var wire 4 ;" alu_op1_src [3:0] $end
$var wire 4 <" alu_op2_src [3:0] $end
$var wire 1 9 clk $end
$var wire 32 =" imm [31:0] $end
$var wire 32 >" pc [31:0] $end
$var wire 32 ?" result [31:0] $end
$var wire 32 @" rs_val [31:0] $end
$var wire 32 A" rt_val [31:0] $end
$var wire 1 B" stall $end
$var reg 32 C" op1 [31:0] $end
$var reg 32 D" op2 [31:0] $end
$var reg 5 E" reg_alu_op [4:0] $end
$scope module pure_alu_inst $end
$var wire 5 F" alu_op [4:0] $end
$var wire 32 G" op1 [31:0] $end
$var wire 32 H" op2 [31:0] $end
$var reg 1 I" integer_overflow $end
$var reg 33 J" overflow_temp [32:0] $end
$var reg 32 K" result [31:0] $end
$upscope $end
$upscope $end
$scope module mem_inst $end
$var wire 1 C clk $end
$var wire 32 L" l_data [31:0] $end
$var wire 3 M" l_s_mode [2:0] $end
$var wire 32 N" mem_addr [31:0] $end
$var wire 1 E mem_read_en $end
$var wire 32 O" mem_write_data [31:0] $end
$var wire 1 F mem_write_en $end
$var wire 1 / rst $end
$var reg 32 P" l_addr [31:0] $end
$var reg 1 Q" load_en $end
$var reg 32 R" mem_read_data [31:0] $end
$var reg 32 S" s_addr [31:0] $end
$var reg 32 T" s_data [31:0] $end
$var reg 1 U" store_en $end
$upscope $end
$scope module wb_inst $end
$var wire 32 V" alu_result [31:0] $end
$var wire 1 W" clk $end
$var wire 32 X" imm [31:0] $end
$var wire 32 Y" mem_data [31:0] $end
$var wire 32 Z" pc [31:0] $end
$var wire 1 L reg_write $end
$var wire 2 [" reg_write_src [1:0] $end
$var wire 1 \" rst $end
$var wire 1 [ write_en $end
$var reg 32 ]" reg_write_data [31:0] $end
$upscope $end
$upscope $end
$scope module mem_inst $end
$var wire 1 ) clk $end
$var wire 32 ^" read_addr [31:0] $end
$var wire 32 _" read_addr_d [31:0] $end
$var wire 1 `" read_en $end
$var wire 1 / rst $end
$var wire 32 a" write_addr [31:0] $end
$var wire 32 b" write_addr_d [31:0] $end
$var wire 32 c" write_data [31:0] $end
$var wire 1 3 write_en $end
$var reg 32 d" read_data [31:0] $end
$upscope $end
$upscope $end
$upscope $end
$enddefinitions $end
#0
$dumpvars
bx d"
bx c"
bx b"
bx a"
x`"
bx _"
bx ^"
bx ]"
z\"
b0 ["
bx Z"
bx Y"
bx X"
zW"
bx V"
0U"
bx T"
bx S"
bx R"
0Q"
bx P"
b0 O"
bx N"
b0 M"
bx L"
bx K"
bx J"
xI"
bx H"
bx G"
bx F"
bx E"
bx D"
bx C"
0B"
b0 A"
b0 @"
bx ?"
bx >"
bx ="
b0 <"
b0 ;"
b0 :"
b0 9"
b0 8"
bx 7"
bx 6"
bx 5"
bx 4"
03"
02"
01"
b0 0"
b0 /"
0."
0-"
0,"
0+"
b0 *"
0)"
0("
b0 '"
b0 &"
b0 %"
bx $"
bx #"
bx ""
bx !"
bx ~
bx }
bx |
bx {
bx z
bx y
bx x
bx w
bx v
0u
b0 t
b0 s
b0 r
bx q
0p
b0 o
b0 n
b0 m
bx l
bx k
b0 j
bx i
bx h
bx g
xf
bx e
bx d
bx c
bx b
xa
bx `
bx _
b0 ^
bx ]
bx \
0[
0Z
0Y
bx X
bx W
bx V
b0 U
0T
bx S
b0 R
0Q
bx P
b0 O
bx N
bx M
0L
bx K
bx J
0I
bx H
bx G
0F
0E
bx D
0C
b0 B
bx A
bx @
0?
bx >
bx =
0<
0;
bx :
09
08
bx 7
b0 6
b0 5
b0 4
03
02
bx 1
bx 0
1/
x.
0-
bx ,
bx +
bx *
1)
0(
0'
bx &
bx %
bx $
0#
1"
0!
$end
#100
b1000000000000000000000000010 d"
b1000000000000000000000000010 +
b1000000000000000000000000010 &
b1000000000000000000000000010 A
b1000000000000000000000000010 L"
b1000000000000000000000000010 $
b1000000000000000000000000010 K
b1000000000000000000000000010 i
b0 _"
b0 *
b0 ^"
b0 l
b0 ,
b0 H
b0 >"
b0 Z"
1<
1-
1`"
b110 b
b1 ^
b0 _
1.
1!
1#
#200
b1000000000000000000000000010 k
b1000000000000000000000000010 >
b1000000000000000000000000010 q
0<
0-
b0 ^
0!
0#
#250
0"
0/
#300
b1000 h
b1000 w
b1000 =
b1000 g
b1000 ="
b1000 X"
13"
1Y
1)"
1?
1("
18
bx _"
b11 x
b11 ""
b10 y
b10 G
b10 ]
b10 #"
1;
bx *
bx ^"
0`"
b10 ^
b1 _
0.
1!
1#
#400
0;
b0 ^
0!
0#
#500
b1000 l
b1000 ,
b1000 H
b1000 >"
b1000 Z"
b100000000100000100000000000000 d"
b100000000100000100000000000000 +
b100000000100000100000000000000 &
b100000000100000100000000000000 A
b100000000100000100000000000000 L"
b100000000100000100000000000000 $
b100000000100000100000000000000 K
b100000000100000100000000000000 i
b1000 _"
1<
1-
b1000 *
b1000 ^"
1`"
b1 ^
1.
b10 `
1a
b101 d
b100 c
b10 e
b0 _
b110 b
1!
1#
#600
b100000000100000100000000000000 k
b100000000100000100000000000000 >
b100000000100000100000000000000 q
0<
0-
b0 ^
0!
0#
#700
b100000000000000 h
b10000 {
b10000 M
b10000 6"
b0 8"
b0 R
b0 j
b0 @"
b100000000000000 w
b100000000000000 =
b100000000000000 g
b100000000000000 ="
b100000000000000 X"
b10000 }
b10000 S
b10000 $"
b10000 5"
b0 |
b0 P
b0 4"
b1 /"
b1 s
1."
1[
1L
11"
1Q
0("
08
0)"
0?
b1 '"
b1 6
b1 o
b1 <"
b10 &"
b10 5
b10 n
b10 ;"
b1 %"
b1 4
b1 m
b1 :"
bx _"
b10 x
b10 ""
b1000 y
b1000 G
b1000 ]
b1000 #"
1;
bx *
bx ^"
0`"
b10 ^
b1 _
0.
1!
1#
#800
0;
b0 ^
0!
0#
#900
0f
b100000000000000 ]"
b100000000000000 N
b100000000000000 7"
b100000000000000 K"
b100000000000000 7
b100000000000000 ?"
b100000000000000 N"
b100000000000000 V"
0I"
b100000000000000 J"
b100000000000000 D"
b100000000000000 H"
b0 C"
b0 G"
b1 E"
b1 F"
19
b100 ^
0a
b100 d
b10 c
b10 _
b10 b
1!
1#
#1000
09
b0 ^
0!
0#
#1100
1Z
b10000 ^
b100 `
b1000 d
b11 e
b11 _
1!
1#
#1200
0Z
b0 ^
0!
0#
#1300
b1100 l
b1100 ,
b1100 H
b1100 >"
b1100 Z"
b10001110000100010000000000000000 d"
b10001110000100010000000000000000 +
b10001110000100010000000000000000 &
b10001110000100010000000000000000 A
b10001110000100010000000000000000 L"
b10001110000100010000000000000000 $
b10001110000100010000000000000000 K
b10001110000100010000000000000000 i
b1100 _"
1<
1-
b1100 *
b1100 ^"
1`"
b110 b
b1 ^
1.
b0 `
1a
b1 d
b100 e
b0 _
1!
1#
#1400
b10001110000100010000000000000000 k
b10001110000100010000000000000000 >
b10001110000100010000000000000000 q
0<
0-
b0 ^
0!
0#
#1500
b100000000000000 8"
b100000000000000 R
b100000000000000 j
b100000000000000 @"
b0 h
b10001 {
b10001 M
b10001 6"
bx 9"
bx U
bx A"
bx O"
b0 w
b0 =
b0 g
b0 ="
b0 X"
b10001 }
b10001 S
b10001 $"
b10001 5"
b10000 |
b10000 P
b10000 4"
bx ]"
bx N
bx 7"
1+"
1E
b1 0"
b1 O
b1 t
b1 ["
12"
1T
bx _"
b100011 y
b100011 G
b100011 ]
b100011 #"
1;
bx *
bx ^"
0`"
b10 ^
b1 _
0.
1!
1#
#1600
0;
b0 ^
0!
0#
#1700
b0 D"
b0 H"
b100000000000000 C"
b100000000000000 G"
19
b100 ^
b10 `
0a
b100 d
b0 c
b10 e
b10 _
b0 b
1!
1#
#1800
09
b0 ^
0!
0#
#1900
b1 d"
b1 +
b1 &
b1 A
b1 L"
b1 $
b1 K
b1 i
b100000000000000 _"
b100000000000000 b"
b100000000000000 *
b100000000000000 ^"
1`"
b100000000000000 S"
b100000000000000 0
b100000000000000 V
b100000000000000 a"
b100000000000000 P"
b100000000000000 %
b100000000000000 @
1Q"
1(
0)
1C
12
1'
b1000 ^
b11 `
b110 d
b11 e
b11 _
1!
1#
#2000
b1 ]"
b1 N
b1 7"
b1 R"
b1 D
b1 Y"
1)
0C
02
0'
b0 ^
0!
0#
#2100
b1 9"
b1 U
b1 A"
b1 O"
1Z
b10000 ^
b100 `
b1000 d
b100 e
b100 _
1!
1#
#2200
0Z
b0 ^
0!
0#
#2300
b10001110000100100000000000000100 d"
b10001110000100100000000000000100 +
b10001110000100100000000000000100 &
b10001110000100100000000000000100 A
b10001110000100100000000000000100 L"
b10001110000100100000000000000100 $
b10001110000100100000000000000100 K
b10001110000100100000000000000100 i
b10000 l
b10000 ,
b10000 H
b10000 >"
b10000 Z"
b10000 _"
1<
1-
b10000 *
b10000 ^"
b110 b
b1 ^
1.
b101 `
1a
b1011 d
b101 e
b0 _
1!
1#
#2400
b10001110000100100000000000000100 k
b10001110000100100000000000000100 >
b10001110000100100000000000000100 q
0<
0-
b0 ^
0!
0#
#2500
bx 9"
bx U
bx A"
bx O"
b100 h
b10010 {
b10010 M
b10010 6"
b1 d"
b1 +
b1 &
b1 A
b1 L"
b1 $
b1 K
b1 i
b100 w
b100 =
b100 g
b100 ="
b100 X"
b10010 }
b10010 S
b10010 $"
b10010 5"
b100000000000000 _"
1;
b100000000000000 *
b100000000000000 ^"
b10 ^
b1 _
0.
1!
1#
#2600
0;
b0 ^
0!
0#
#2700
b100000000000100 K"
b100000000000100 7
b100000000000100 ?"
b100000000000100 N"
b100000000000100 V"
b100000000000100 J"
b100 D"
b100 H"
19
b100 ^
b10 `
0a
b100 d
b10 e
b10 _
b0 b
1!
1#
#2800
09
b0 ^
0!
0#
#2900
b10 d"
b10 +
b10 &
b10 A
b10 L"
b10 $
b10 K
b10 i
b100000000000100 _"
b100000000000100 b"
b100000000000100 *
b100000000000100 ^"
b100000000000100 S"
b100000000000100 0
b100000000000100 V
b100000000000100 a"
b100000000000100 P"
b100000000000100 %
b100000000000100 @
0)
1C
12
1'
b1000 ^
b11 `
b110 d
b11 e
b11 _
1!
1#
#3000
b10 ]"
b10 N
b10 7"
b10 R"
b10 D
b10 Y"
1)
0C
02
0'
b0 ^
0!
0#
#3100
b10 9"
b10 U
b10 A"
b10 O"
1Z
b10000 ^
b100 `
b1000 d
b100 e
b100 _
1!
1#
#3200
0Z
b0 ^
0!
0#
#3300
b10001100101001100000100000 d"
b10001100101001100000100000 +
b10001100101001100000100000 &
b10001100101001100000100000 A
b10001100101001100000100000 L"
b10001100101001100000100000 $
b10001100101001100000100000 K
b10001100101001100000100000 i
b10100 l
b10100 ,
b10100 H
b10100 >"
b10100 Z"
b10100 _"
1<
1-
b10100 *
b10100 ^"
b110 b
b1 ^
1.
b101 `
1a
b1011 d
b101 e
b0 _
1!
1#
#3400
b10001100101001100000100000 k
b10001100101001100000100000 >
b10001100101001100000100000 q
0<
0-
b0 ^
0!
0#
#3500
b10011 {
b10011 M
b10011 6"
b0 h
b100000000000100 ]"
b100000000000100 N
b100000000000100 7"
b0 /"
b0 s
b0 0"
b0 O
b0 t
b0 ["
b10 9"
b10 U
b10 A"
b10 O"
b1 8"
b1 R
b1 j
b1 @"
b10 d"
b10 +
b10 &
b10 A
b10 L"
b10 $
b10 K
b10 i
b0 w
b0 =
b0 g
b0 ="
b0 X"
b100000 v
b100000 :
b100000 \
b100000 !"
b0 ~
b0 X
b10011 z
b10011 J
b10001 |
b10001 P
b10001 4"
0+"
0E
1."
1[
1L
12"
1T
11"
1Q
b11 '"
b11 6
b11 o
b11 <"
b10 &"
b10 5
b10 n
b10 ;"
b1 %"
b1 4
b1 m
b1 :"
b100000000000100 _"
b1 x
b1 ""
b0 y
b0 G
b0 ]
b0 #"
1;
b100000000000100 *
b100000000000100 ^"
b10 ^
b1 _
0.
1!
1#
#3600
0;
b0 ^
0!
0#
#3700
1f
b11 ]"
b11 N
b11 7"
b11 K"
b11 7
b11 ?"
b11 N"
b11 V"
b11 J"
b10 D"
b10 H"
b1 C"
b1 G"
19
b100 ^
b10 `
0a
b100 d
b10 c
b10 e
b10 _
b10 b
1!
1#
#3800
09
b0 ^
0!
0#
#3900
1Z
b10000 ^
b100 `
b1000 d
b11 e
b11 _
1!
1#
#4000
0Z
b0 ^
0!
0#
#4100
bx d"
bx +
bx &
bx A
bx L"
bx $
bx K
bx i
b11000 l
b11000 ,
b11000 H
b11000 >"
b11000 Z"
b11000 _"
1<
1-
b11000 *
b11000 ^"
b110 b
b1 ^
1.
b0 `
1a
b1 d
b100 e
b0 _
1!
1#
#4200
bx k
bx >
bx q
0<
0-
b0 ^
0!
0#
#4300
b0 9"
b0 U
b0 A"
b0 O"
b0 8"
b0 R
b0 j
b0 @"
b10 d"
b10 +
b10 &
b10 A
b10 L"
b10 $
b10 K
b10 i
bx }
bx S
bx $"
bx 5"
bx |
bx P
bx 4"
0."
0[
0L
02"
0T
01"
0Q
b0 '"
b0 6
b0 o
b0 <"
b0 &"
b0 5
b0 n
b0 ;"
b0 %"
b0 4
b0 m
b0 :"
b100000000000100 _"
b10 x
b10 ""
bx y
bx G
bx ]
bx #"
1;
b100000000000100 *
b100000000000100 ^"
b10 ^
b1 _
0.
1!
1#
#4400
0;
b0 ^
0!
0#
#4500
0f
b0 K"
b0 7
b0 ?"
b0 N"
b0 V"
b0 D"
b0 H"
b0 C"
b0 G"
b0 E"
b0 F"
19
b100 ^
b10 `
0a
b100 d
b0 c
b10 e
b10 _
b0 b
1!
1#
#4600
09
b0 ^
0!
0#
#4700
b0 _"
b0 b"
b0 *
b0 ^"
0`"
b0 S"
b0 0
b0 V
b0 a"
b0 P"
b0 %
b0 @
0Q"
0(
b0 T"
b0 1
b0 W
b0 c"
0)
1C
12
1'
b1000 ^
b11 `
b110 d
b11 e
b11 _
1!
1#
#4800
1)
0C
02
0'
b0 ^
0!
0#
#4900
1Z
b10000 ^
b100 `
b1000 d
b100 e
b100 _
1!
1#
#5000
0Z
b0 ^
0!
0#
#5100
b11100 l
b11100 ,
b11100 H
b11100 >"
b11100 Z"
bx d"
bx +
bx &
bx A
bx L"
bx $
bx K
bx i
b11100 _"
1<
1-
b11100 *
b11100 ^"
1`"
b110 b
b1 ^
1.
b101 `
1a
b1011 d
b101 e
b0 _
1!
1#
#5200
0<
0-
b0 ^
0!
0#
#5300
b0 _"
1;
b0 *
b0 ^"
0`"
b10 ^
b1 _
0.
1!
1#
#5400
0;
b0 ^
0!
0#
#5500
19
b100 ^
b10 `
0a
b100 d
b10 e
b10 _
b0 b
1!
1#
#5600
09
b0 ^
0!
0#
#5700
0)
1C
12
1'
b1000 ^
b11 `
b110 d
b11 e
b11 _
1!
1#
#5800
bx R"
bx D
bx Y"
1)
0C
02
0'
b0 ^
0!
0#
#5900
1Z
b10000 ^
b100 `
b1000 d
b100 e
b100 _
1!
1#
#6000
0Z
b0 ^
0!
0#
#6100
b100000 l
b100000 ,
b100000 H
b100000 >"
b100000 Z"
bx d"
bx +
bx &
bx A
bx L"
bx $
bx K
bx i
b100000 _"
1<
1-
b100000 *
b100000 ^"
1`"
b110 b
b1 ^
1.
b101 `
1a
b1011 d
b101 e
b0 _
1!
1#
#6200
0<
0-
b0 ^
0!
0#
#6300
b0 _"
1;
b0 *
b0 ^"
0`"
b10 ^
b1 _
0.
1!
1#
#6400
0;
b0 ^
0!
0#
#6500
19
b100 ^
b10 `
0a
b100 d
b10 e
b10 _
b0 b
1!
1#
#6600
09
b0 ^
0!
0#
#6700
0)
1C
12
1'
b1000 ^
b11 `
b110 d
b11 e
b11 _
1!
1#
#6800
1)
0C
02
0'
b0 ^
0!
0#
#6900
1Z
b10000 ^
b100 `
b1000 d
b100 e
b100 _
1!
1#
#7000
0Z
b0 ^
0!
0#
#7100
b100100 l
b100100 ,
b100100 H
b100100 >"
b100100 Z"
bx d"
bx +
bx &
bx A
bx L"
bx $
bx K
bx i
b100100 _"
1<
1-
b100100 *
b100100 ^"
1`"
b110 b
b1 ^
1.
b101 `
1a
b1011 d
b101 e
b0 _
1!
1#
#7200
0<
0-
b0 ^
0!
0#
#7300
b0 _"
1;
b0 *
b0 ^"
0`"
b10 ^
b1 _
0.
1!
1#
#7400
0;
b0 ^
0!
0#
#7500
19
b100 ^
b10 `
0a
b100 d
b10 e
b10 _
b0 b
1!
1#
#7600
09
b0 ^
0!
0#
#7700
0)
1C
12
1'
b1000 ^
b11 `
b110 d
b11 e
b11 _
1!
1#
#7800
1)
0C
02
0'
b0 ^
0!
0#
#7900
1Z
b10000 ^
b100 `
b1000 d
b100 e
b100 _
1!
1#
#8000
0Z
b0 ^
0!
0#
#8100
b101000 l
b101000 ,
b101000 H
b101000 >"
b101000 Z"
bx d"
bx +
bx &
bx A
bx L"
bx $
bx K
bx i
b101000 _"
1<
1-
b101000 *
b101000 ^"
1`"
b110 b
b1 ^
1.
b101 `
1a
b1011 d
b101 e
b0 _
1!
1#
#8200
0<
0-
b0 ^
0!
0#
#8300
b0 _"
1;
b0 *
b0 ^"
0`"
b10 ^
b1 _
0.
1!
1#
#8400
0;
b0 ^
0!
0#
#8500
19
b100 ^
b10 `
0a
b100 d
b10 e
b10 _
b0 b
1!
1#
#8600
09
b0 ^
0!
0#
#8700
0)
1C
12
1'
b1000 ^
b11 `
b110 d
b11 e
b11 _
1!
1#
#8800
1)
0C
02
0'
b0 ^
0!
0#
#8900
1Z
b10000 ^
b100 `
b1000 d
b100 e
b100 _
1!
1#
#9000
0Z
b0 ^
0!
0#
#9100
b101100 l
b101100 ,
b101100 H
b101100 >"
b101100 Z"
bx d"
bx +
bx &
bx A
bx L"
bx $
bx K
bx i
b101100 _"
1<
1-
b101100 *
b101100 ^"
1`"
b110 b
b1 ^
1.
b101 `
1a
b1011 d
b101 e
b0 _
1!
1#
#9200
0<
0-
b0 ^
0!
0#
#9300
b0 _"
1;
b0 *
b0 ^"
0`"
b10 ^
b1 _
0.
1!
1#
#9400
0;
b0 ^
0!
0#
#9500
19
b100 ^
b10 `
0a
b100 d
b10 e
b10 _
b0 b
1!
1#
#9600
09
b0 ^
0!
0#
#9700
0)
1C
12
1'
b1000 ^
b11 `
b110 d
b11 e
b11 _
1!
1#
#9800
1)
0C
02
0'
b0 ^
0!
0#
#9900
1Z
b10000 ^
b100 `
b1000 d
b100 e
b100 _
1!
1#
#10000
0Z
b0 ^
0!
0#
#10100
b110000 l
b110000 ,
b110000 H
b110000 >"
b110000 Z"
bx d"
bx +
bx &
bx A
bx L"
bx $
bx K
bx i
b110000 _"
1<
1-
b110000 *
b110000 ^"
1`"
b110 b
b1 ^
1.
b101 `
1a
b1011 d
b101 e
b0 _
1!
1#
#10200
0<
0-
b0 ^
0!
0#
#10300
b0 _"
1;
b0 *
b0 ^"
0`"
b10 ^
b1 _
0.
1!
1#
#10400
0;
b0 ^
0!
0#
#10500
19
b100 ^
b10 `
0a
b100 d
b10 e
b10 _
b0 b
1!
1#
#10600
09
b0 ^
0!
0#
#10700
0)
1C
12
1'
b1000 ^
b11 `
b110 d
b11 e
b11 _
1!
1#
#10800
1)
0C
02
0'
b0 ^
0!
0#
#10900
1Z
b10000 ^
b100 `
b1000 d
b100 e
b100 _
1!
1#
#11000
0Z
b0 ^
0!
0#
#11100
b110100 l
b110100 ,
b110100 H
b110100 >"
b110100 Z"
bx d"
bx +
bx &
bx A
bx L"
bx $
bx K
bx i
b110100 _"
1<
1-
b110100 *
b110100 ^"
1`"
b110 b
b1 ^
1.
b101 `
1a
b1011 d
b101 e
b0 _
1!
1#
#11200
0<
0-
b0 ^
0!
0#
#11300
b0 _"
1;
b0 *
b0 ^"
0`"
b10 ^
b1 _
0.
1!
1#
#11400
0;
b0 ^
0!
0#
#11500
19
b100 ^
b10 `
0a
b100 d
b10 e
b10 _
b0 b
1!
1#
#11600
09
b0 ^
0!
0#
#11700
0)
1C
12
1'
b1000 ^
b11 `
b110 d
b11 e
b11 _
1!
1#
#11800
1)
0C
02
0'
b0 ^
0!
0#
#11900
1Z
b10000 ^
b100 `
b1000 d
b100 e
b100 _
1!
1#
#12000
0Z
b0 ^
0!
0#
#12100
b111000 l
b111000 ,
b111000 H
b111000 >"
b111000 Z"
bx d"
bx +
bx &
bx A
bx L"
bx $
bx K
bx i
b111000 _"
1<
1-
b111000 *
b111000 ^"
1`"
b110 b
b1 ^
1.
b101 `
1a
b1011 d
b101 e
b0 _
1!
1#
#12200
0<
0-
b0 ^
0!
0#
#12300
b0 _"
1;
b0 *
b0 ^"
0`"
b10 ^
b1 _
0.
1!
1#
#12400
0;
b0 ^
0!
0#
#12500
19
b100 ^
b10 `
0a
b100 d
b10 e
b10 _
b0 b
1!
1#
#12600
09
b0 ^
0!
0#
#12700
0)
1C
12
1'
b1000 ^
b11 `
b110 d
b11 e
b11 _
1!
1#
#12800
1)
0C
02
0'
b0 ^
0!
0#
#12900
1Z
b10000 ^
b100 `
b1000 d
b100 e
b100 _
1!
1#
#13000
0Z
b0 ^
0!
0#
#13100
b111100 l
b111100 ,
b111100 H
b111100 >"
b111100 Z"
bx d"
bx +
bx &
bx A
bx L"
bx $
bx K
bx i
b111100 _"
1<
1-
b111100 *
b111100 ^"
1`"
b110 b
b1 ^
1.
b101 `
1a
b1011 d
b101 e
b0 _
1!
1#
#13200
0<
0-
b0 ^
0!
0#
#13300
b0 _"
1;
b0 *
b0 ^"
0`"
b10 ^
b1 _
0.
1!
1#
#13400
0;
b0 ^
0!
0#
#13500
19
b100 ^
b10 `
0a
b100 d
b10 e
b10 _
b0 b
1!
1#
#13600
09
b0 ^
0!
0#
#13700
0)
1C
12
1'
b1000 ^
b11 `
b110 d
b11 e
b11 _
1!
1#
#13800
1)
0C
02
0'
b0 ^
0!
0#
#13900
1Z
b10000 ^
b100 `
b1000 d
b100 e
b100 _
1!
1#
#14000
0Z
b0 ^
0!
0#
#14100
b1000000 l
b1000000 ,
b1000000 H
b1000000 >"
b1000000 Z"
bx d"
bx +
bx &
bx A
bx L"
bx $
bx K
bx i
b1000000 _"
1<
1-
b1000000 *
b1000000 ^"
1`"
b110 b
b1 ^
1.
b101 `
1a
b1011 d
b101 e
b0 _
1!
1#
#14200
0<
0-
b0 ^
0!
0#
#14300
b0 _"
1;
b0 *
b0 ^"
0`"
b10 ^
b1 _
0.
1!
1#
#14400
0;
b0 ^
0!
0#
#14500
19
b100 ^
b10 `
0a
b100 d
b10 e
b10 _
b0 b
1!
1#
#14600
09
b0 ^
0!
0#
#14700
0)
1C
12
1'
b1000 ^
b11 `
b110 d
b11 e
b11 _
1!
1#
#14800
1)
0C
02
0'
b0 ^
0!
0#
#14900
1Z
b10000 ^
b100 `
b1000 d
b100 e
b100 _
1!
1#
#15000
0Z
b0 ^
0!
0#
#15100
b1000100 l
b1000100 ,
b1000100 H
b1000100 >"
b1000100 Z"
bx d"
bx +
bx &
bx A
bx L"
bx $
bx K
bx i
b1000100 _"
1<
1-
b1000100 *
b1000100 ^"
1`"
b110 b
b1 ^
1.
b101 `
1a
b1011 d
b101 e
b0 _
1!
1#
#15200
0<
0-
b0 ^
0!
0#
#15300
b0 _"
1;
b0 *
b0 ^"
0`"
b10 ^
b1 _
0.
1!
1#
#15400
0;
b0 ^
0!
0#
#15500
19
b100 ^
b10 `
0a
b100 d
b10 e
b10 _
b0 b
1!
1#
#15600
09
b0 ^
0!
0#
#15700
0)
1C
12
1'
b1000 ^
b11 `
b110 d
b11 e
b11 _
1!
1#
#15800
1)
0C
02
0'
b0 ^
0!
0#
